{"page":"1","per_page":12,"pages":6,"total":62,"shots":[{"id":1666038,"title":"Trifold Pocket Guide","description":"Print proof for a 4x12 inch trifold pocket guide intended for Kindling users.","height":300,"width":400,"likes_count":1,"comments_count":0,"rebounds_count":0,"url":"https://dribbble.com/shots/1666038-Trifold-Pocket-Guide","short_url":"http://drbl.in/lShk","views_count":2,"rebound_source_id":null,"image_url":"https://d13yacurqjgara.cloudfront.net/users/44352/screenshots/1666038/side-1.jpg","image_teaser_url":"https://d13yacurqjgara.cloudfront.net/users/44352/screenshots/1666038/side-1_teaser.jpg","player":{"id":44352,"name":"Jim Nielsen","location":"NYC","followers_count":210,"draftees_count":0,"likes_count":172,"likes_received_count":351,"comments_count":101,"comments_received_count":26,"rebounds_count":3,"rebounds_received_count":0,"url":"https://dribbble.com/jimniels","avatar_url":"https://d13yacurqjgara.cloudfront.net/users/44352/avatars/original/me_normal.png?1310057705","username":"jimniels","twitter_screen_name":"jimniels","website_url":"http://jim-nielsen.com","drafted_by_player_id":4737,"shots_count":62,"following_count":124,"created_at":"2011/07/07 12:55:04 -0400"},"created_at":"2014/07/31 18:12:46 -0400"},{"id":1539161,"title":"Animated cursor","description":"Playing around with some CSS animations for drawing the eye down into the footer.","height":300,"width":400,"likes_count":3,"comments_count":0,"rebounds_count":0,"url":"https://dribbble.com/shots/1539161-Animated-cursor","short_url":"http://drbl.in/kXln","views_count":487,"rebound_source_id":null,"image_url":"https://d13yacurqjgara.cloudfront.net/users/44352/screenshots/1539161/cursors.gif","image_teaser_url":"https://d13yacurqjgara.cloudfront.net/users/44352/screenshots/1539161/cursors_teaser.gif","player":{"id":44352,"name":"Jim Nielsen","location":"NYC","followers_count":210,"draftees_count":0,"likes_count":172,"likes_received_count":351,"comments_count":101,"comments_received_count":26,"rebounds_count":3,"rebounds_received_count":0,"url":"https://dribbble.com/jimniels","avatar_url":"https://d13yacurqjgara.cloudfront.net/users/44352/avatars/original/me_normal.png?1310057705","username":"jimniels","twitter_screen_name":"jimniels","website_url":"http://jim-nielsen.com","drafted_by_player_id":4737,"shots_count":62,"following_count":124,"created_at":"2011/07/07 12:55:04 -0400"},"created_at":"2014/05/05 16:46:40 -0400"},{"id":1520625,"title":"Filetype Icons","description":"Working on some positive/negative filetype icons. See the in-progress larger collection at http://cl.ly/image/1O2d1j3l3I3C","height":600,"width":800,"likes_count":1,"comments_count":0,"rebounds_count":0,"url":"https://dribbble.com/shots/1520625-Filetype-Icons","short_url":"http://drbl.in/kQsP","views_count":464,"rebound_source_id":null,"image_url":"https://d13yacurqjgara.cloudfront.net/users/44352/screenshots/1520625/filetypes.gif","image_teaser_url":"https://d13yacurqjgara.cloudfront.net/users/44352/screenshots/1520625/filetypes_teaser.gif","image_400_url":"https://d13yacurqjgara.cloudfront.net/users/44352/screenshots/1520625/filetypes_1x.gif","player":{"id":44352,"name":"Jim Nielsen","location":"NYC","followers_count":210,"draftees_count":0,"likes_count":172,"likes_received_count":351,"comments_count":101,"comments_received_count":26,"rebounds_count":3,"rebounds_received_count":0,"url":"https://dribbble.com/jimniels","avatar_url":"https://d13yacurqjgara.cloudfront.net/users/44352/avatars/original/me_normal.png?1310057705","username":"jimniels","twitter_screen_name":"jimniels","website_url":"http://jim-nielsen.com","drafted_by_player_id":4737,"shots_count":62,"following_count":124,"created_at":"2011/07/07 12:55:04 -0400"},"created_at":"2014/04/22 18:15:58 -0400"},{"id":1500444,"title":"1 Pixel","description":"At the smallest size, I'm weighing the 1 pixel difference between these two ...","height":600,"width":800,"likes_count":2,"comments_count":0,"rebounds_count":0,"url":"https://dribbble.com/shots/1500444-1-Pixel","short_url":"http://drbl.in/kIUK","views_count":206,"rebound_source_id":null,"image_url":"https://d13yacurqjgara.cloudfront.net/users/44352/screenshots/1500444/1pixel.png","image_teaser_url":"https://d13yacurqjgara.cloudfront.net/users/44352/screenshots/1500444/1pixel_teaser.png","image_400_url":"https://d13yacurqjgara.cloudfront.net/users/44352/screenshots/1500444/1pixel_1x.png","player":{"id":44352,"name":"Jim Nielsen","location":"NYC","followers_count":210,"draftees_count":0,"likes_count":172,"likes_received_count":351,"comments_count":101,"comments_received_count":26,"rebounds_count":3,"rebounds_received_count":0,"url":"https://dribbble.com/jimniels","avatar_url":"https://d13yacurqjgara.cloudfront.net/users/44352/avatars/original/me_normal.png?1310057705","username":"jimniels","twitter_screen_name":"jimniels","website_url":"http://jim-nielsen.com","drafted_by_player_id":4737,"shots_count":62,"following_count":124,"created_at":"2011/07/07 12:55:04 -0400"},"created_at":"2014/04/08 18:37:43 -0400"},{"id":1488230,"title":"Step Process UI","description":"Mocking some potential UI for batch actions on multiple items within a system.","height":300,"width":400,"likes_count":2,"comments_count":0,"rebounds_count":0,"url":"https://dribbble.com/shots/1488230-Step-Process-UI","short_url":"http://drbl.in/kEtQ","views_count":457,"rebound_source_id":null,"image_url":"https://d13yacurqjgara.cloudfront.net/users/44352/screenshots/1488230/400.png","image_teaser_url":"https://d13yacurqjgara.cloudfront.net/users/44352/screenshots/1488230/400_teaser.png","player":{"id":44352,"name":"Jim Nielsen","location":"NYC","followers_count":210,"draftees_count":0,"likes_count":172,"likes_received_count":351,"comments_count":101,"comments_received_count":26,"rebounds_count":3,"rebounds_received_count":0,"url":"https://dribbble.com/jimniels","avatar_url":"https://d13yacurqjgara.cloudfront.net/users/44352/avatars/original/me_normal.png?1310057705","username":"jimniels","twitter_screen_name":"jimniels","website_url":"http://jim-nielsen.com","drafted_by_player_id":4737,"shots_count":62,"following_count":124,"created_at":"2011/07/07 12:55:04 -0400"},"created_at":"2014/03/31 18:28:49 -0400"},{"id":1430439,"title":"Landing Page Tweaks","description":"Kindling Loves Startups landing page","height":300,"width":400,"likes_count":1,"comments_count":0,"rebounds_count":0,"url":"https://dribbble.com/shots/1430439-Landing-Page-Tweaks","short_url":"http://drbl.in/kjax","views_count":338,"rebound_source_id":null,"image_url":"https://d13yacurqjgara.cloudfront.net/users/44352/screenshots/1430439/startups.png","image_teaser_url":"https://d13yacurqjgara.cloudfront.net/users/44352/screenshots/1430439/startups_teaser.png","player":{"id":44352,"name":"Jim Nielsen","location":"NYC","followers_count":210,"draftees_count":0,"likes_count":172,"likes_received_count":351,"comments_count":101,"comments_received_count":26,"rebounds_count":3,"rebounds_received_count":0,"url":"https://dribbble.com/jimniels","avatar_url":"https://d13yacurqjgara.cloudfront.net/users/44352/avatars/original/me_normal.png?1310057705","username":"jimniels","twitter_screen_name":"jimniels","website_url":"http://jim-nielsen.com","drafted_by_player_id":4737,"shots_count":62,"following_count":124,"created_at":"2011/07/07 12:55:04 -0400"},"created_at":"2014/02/19 15:12:03 -0500"},{"id":1427079,"title":"Brand & Identity Layout ","description":"","height":300,"width":400,"likes_count":2,"comments_count":0,"rebounds_count":0,"url":"https://dribbble.com/shots/1427079-Brand-Identity-Layout","short_url":"http://drbl.in/khNR","views_count":318,"rebound_source_id":null,"image_url":"https://d13yacurqjgara.cloudfront.net/users/44352/screenshots/1427079/layout.jpg","image_teaser_url":"https://d13yacurqjgara.cloudfront.net/users/44352/screenshots/1427079/layout_teaser.jpg","player":{"id":44352,"name":"Jim Nielsen","location":"NYC","followers_count":210,"draftees_count":0,"likes_count":172,"likes_received_count":351,"comments_count":101,"comments_received_count":26,"rebounds_count":3,"rebounds_received_count":0,"url":"https://dribbble.com/jimniels","avatar_url":"https://d13yacurqjgara.cloudfront.net/users/44352/avatars/original/me_normal.png?1310057705","username":"jimniels","twitter_screen_name":"jimniels","website_url":"http://jim-nielsen.com","drafted_by_player_id":4737,"shots_count":62,"following_count":124,"created_at":"2011/07/07 12:55:04 -0400"},"created_at":"2014/02/17 16:02:10 -0500"},{"id":1346354,"title":"iOS Icon Masks","description":"Creating some new masks for the icons at http://iosicongallery.comnnItu2019s kind of sad to lose the old drop shadows and skeumorphic elements ... nostalgia I guess.","height":600,"width":800,"likes_count":1,"comments_count":0,"rebounds_count":0,"url":"https://dribbble.com/shots/1346354-iOS-Icon-Masks","short_url":"http://drbl.in/jDVw","views_count":543,"rebound_source_id":null,"image_url":"https://d13yacurqjgara.cloudfront.net/users/44352/screenshots/1346354/grids.png","image_teaser_url":"https://d13yacurqjgara.cloudfront.net/users/44352/screenshots/1346354/grids_teaser.png","image_400_url":"https://d13yacurqjgara.cloudfront.net/users/44352/screenshots/1346354/grids_1x.png","player":{"id":44352,"name":"Jim Nielsen","location":"NYC","followers_count":210,"draftees_count":0,"likes_count":172,"likes_received_count":351,"comments_count":101,"comments_received_count":26,"rebounds_count":3,"rebounds_received_count":0,"url":"https://dribbble.com/jimniels","avatar_url":"https://d13yacurqjgara.cloudfront.net/users/44352/avatars/original/me_normal.png?1310057705","username":"jimniels","twitter_screen_name":"jimniels","website_url":"http://jim-nielsen.com","drafted_by_player_id":4737,"shots_count":62,"following_count":124,"created_at":"2011/07/07 12:55:04 -0400"},"created_at":"2013/12/13 16:11:04 -0500"},{"id":1345208,"title":"Newsletter graphic","description":"Working on a flip clock style design for newsletter.","height":300,"width":400,"likes_count":3,"comments_count":1,"rebounds_count":0,"url":"https://dribbble.com/shots/1345208-Newsletter-graphic","short_url":"http://drbl.in/jDzu","views_count":478,"rebound_source_id":null,"image_url":"https://d13yacurqjgara.cloudfront.net/users/44352/screenshots/1345208/2014.png","image_teaser_url":"https://d13yacurqjgara.cloudfront.net/users/44352/screenshots/1345208/2014_teaser.png","player":{"id":44352,"name":"Jim Nielsen","location":"NYC","followers_count":210,"draftees_count":0,"likes_count":172,"likes_received_count":351,"comments_count":101,"comments_received_count":26,"rebounds_count":3,"rebounds_received_count":0,"url":"https://dribbble.com/jimniels","avatar_url":"https://d13yacurqjgara.cloudfront.net/users/44352/avatars/original/me_normal.png?1310057705","username":"jimniels","twitter_screen_name":"jimniels","website_url":"http://jim-nielsen.com","drafted_by_player_id":4737,"shots_count":62,"following_count":124,"created_at":"2011/07/07 12:55:04 -0400"},"created_at":"2013/12/12 17:52:36 -0500"},{"id":1294234,"title":"Footer template","description":"","height":300,"width":400,"likes_count":1,"comments_count":0,"rebounds_count":0,"url":"https://dribbble.com/shots/1294234-Footer-template","short_url":"http://drbl.in/jkHg","views_count":296,"rebound_source_id":null,"image_url":"https://d13yacurqjgara.cloudfront.net/users/44352/screenshots/1294234/footer.png","image_teaser_url":"https://d13yacurqjgara.cloudfront.net/users/44352/screenshots/1294234/footer_teaser.png","player":{"id":44352,"name":"Jim Nielsen","location":"NYC","followers_count":210,"draftees_count":0,"likes_count":172,"likes_received_count":351,"comments_count":101,"comments_received_count":26,"rebounds_count":3,"rebounds_received_count":0,"url":"https://dribbble.com/jimniels","avatar_url":"https://d13yacurqjgara.cloudfront.net/users/44352/avatars/original/me_normal.png?1310057705","username":"jimniels","twitter_screen_name":"jimniels","website_url":"http://jim-nielsen.com","drafted_by_player_id":4737,"shots_count":62,"following_count":124,"created_at":"2011/07/07 12:55:04 -0400"},"created_at":"2013/10/31 17:30:53 -0400"},{"id":1250734,"title":"Second pricing iteration","description":"Second iteration included a breakdown of pricing, which was ultimately discarded. As you can see, tried playing with different labels for the breakdown.nnThe final iteration is live at http://kindlingapp.com/pricing","height":300,"width":400,"likes_count":1,"comments_count":0,"rebounds_count":0,"url":"https://dribbble.com/shots/1250734-Second-pricing-iteration","short_url":"http://drbl.in/iUCE","views_count":476,"rebound_source_id":null,"image_url":"https://d13yacurqjgara.cloudfront.net/users/44352/screenshots/1250734/pricing.png","image_teaser_url":"https://d13yacurqjgara.cloudfront.net/users/44352/screenshots/1250734/pricing_teaser.png","player":{"id":44352,"name":"Jim Nielsen","location":"NYC","followers_count":210,"draftees_count":0,"likes_count":172,"likes_received_count":351,"comments_count":101,"comments_received_count":26,"rebounds_count":3,"rebounds_received_count":0,"url":"https://dribbble.com/jimniels","avatar_url":"https://d13yacurqjgara.cloudfront.net/users/44352/avatars/original/me_normal.png?1310057705","username":"jimniels","twitter_screen_name":"jimniels","website_url":"http://jim-nielsen.com","drafted_by_player_id":4737,"shots_count":62,"following_count":124,"created_at":"2011/07/07 12:55:04 -0400"},"created_at":"2013/09/26 14:15:06 -0400"},{"id":1250731,"title":"First iteration on pricing","description":"","height":300,"width":400,"likes_count":1,"comments_count":0,"rebounds_count":0,"url":"https://dribbble.com/shots/1250731-First-iteration-on-pricing","short_url":"http://drbl.in/iUCB","views_count":192,"rebound_source_id":null,"image_url":"https://d13yacurqjgara.cloudfront.net/users/44352/screenshots/1250731/pricing-1.png","image_teaser_url":"https://d13yacurqjgara.cloudfront.net/users/44352/screenshots/1250731/pricing-1_teaser.png","player":{"id":44352,"name":"Jim Nielsen","location":"NYC","followers_count":210,"draftees_count":0,"likes_count":172,"likes_received_count":351,"comments_count":101,"comments_received_count":26,"rebounds_count":3,"rebounds_received_count":0,"url":"https://dribbble.com/jimniels","avatar_url":"https://d13yacurqjgara.cloudfront.net/users/44352/avatars/original/me_normal.png?1310057705","username":"jimniels","twitter_screen_name":"jimniels","website_url":"http://jim-nielsen.com","drafted_by_player_id":4737,"shots_count":62,"following_count":124,"created_at":"2011/07/07 12:55:04 -0400"},"created_at":"2013/09/26 14:14:24 -0400"}]}